\relax 
\citation{art:sutton1999between}
\citation{in:sutskever2014sequence}
\citation{in:kleiner2002towards}
\bibstyle{apalike}
\bibdata{/home/han/bibliography/bibliography}
\bibcite{in:kleiner2002towards}{Kleiner et\nobreakspace  {}al., 2002}
\bibcite{in:sutskever2014sequence}{Sutskever et\nobreakspace  {}al., 2014}
\bibcite{art:sutton1999between}{Sutton et\nobreakspace  {}al., 1999}
