\relax 
\providecommand \oddpage@label [2]{}
\@writefile{toc}{\contentsline {section}{\numberline {1}Problem definition}{1}}
\@writefile{toc}{\contentsline {subsection}{\numberline {1.1}Goal states}{1}}
\@writefile{toc}{\contentsline {subsection}{\numberline {1.2}Action states}{1}}
\@writefile{toc}{\contentsline {subsection}{\numberline {1.3}Algorithm sketch}{1}}
\@writefile{toc}{\contentsline {subsection}{\numberline {1.4}Example problems}{2}}
\@writefile{toc}{\contentsline {subsubsection}{\numberline {1.4.1}Conversations}{2}}
\@writefile{toc}{\contentsline {subsubsection}{\numberline {1.4.2}Navigation}{2}}
\@writefile{toc}{\contentsline {section}{\numberline {2}General framework}{3}}
\@writefile{toc}{\contentsline {subsection}{\numberline {2.1}Fuzzy approach}{3}}
\@writefile{toc}{\contentsline {section}{\numberline {3}The impaired agent}{4}}
\@writefile{toc}{\contentsline {subsection}{\numberline {3.1}Fuzzy entropy}{4}}
