# Fdb version 3
["pdflatex"] 1517563593 "/home/johannes/projects/robocure/ideas/ideas.tex" "ideas.pdf" "ideas" 1517563594
  "/etc/texmf/web2c/texmf.cnf" 1516184232 475 c0e671620eb5563b2130f56340a5fde8 ""
  "/home/johannes/projects/robocure/ideas/ideas.tex" 1517563593 2804 bddafc97beaae99ffb034b4f7d41530a ""
  "/usr/share/texlive/texmf-dist/fonts/map/fontname/texfonts.map" 1480098670 3287 e6b82fe08f5336d4d5ebc73fb1152e87 ""
  "/usr/share/texlive/texmf-dist/fonts/tfm/public/cm/cmbx10.tfm" 1480098701 1328 c834bbb027764024c09d3d2bf908b5f0 ""
  "/usr/share/texlive/texmf-dist/fonts/tfm/public/cm/cmbx12.tfm" 1480098701 1324 c910af8c371558dc20f2d7822f66fe64 ""
  "/usr/share/texlive/texmf-dist/fonts/tfm/public/cm/cmr12.tfm" 1480098701 1288 655e228510b4c2a1abe905c368440826 ""
  "/usr/share/texlive/texmf-dist/fonts/tfm/public/cm/cmti10.tfm" 1480098701 1480 aa8e34af0eb6a2941b776984cf1dfdc4 ""
  "/usr/share/texlive/texmf-dist/fonts/type1/public/amsfonts/cm/cmbx10.pfb" 1480098733 34811 78b52f49e893bcba91bd7581cdc144c0 ""
  "/usr/share/texlive/texmf-dist/fonts/type1/public/amsfonts/cm/cmbx12.pfb" 1480098733 32080 340ef9bf63678554ee606688e7b5339d ""
  "/usr/share/texlive/texmf-dist/fonts/type1/public/amsfonts/cm/cmmi10.pfb" 1480098733 36299 5f9df58c2139e7edcf37c8fca4bd384d ""
  "/usr/share/texlive/texmf-dist/fonts/type1/public/amsfonts/cm/cmr10.pfb" 1480098733 35752 024fb6c41858982481f6968b5fc26508 ""
  "/usr/share/texlive/texmf-dist/fonts/type1/public/amsfonts/cm/cmsy10.pfb" 1480098733 32569 5e5ddc8df908dea60932f3c484a54c0d ""
  "/usr/share/texlive/texmf-dist/fonts/type1/public/amsfonts/cm/cmsy7.pfb" 1480098733 32716 08e384dc442464e7285e891af9f45947 ""
  "/usr/share/texlive/texmf-dist/fonts/type1/public/amsfonts/cm/cmti10.pfb" 1480098733 37944 359e864bd06cde3b1cf57bb20757fb06 ""
  "/usr/share/texlive/texmf-dist/tex/generic/ifxetex/ifxetex.sty" 1480098815 1458 43ab4710dc82f3edeabecd0d099626b2 ""
  "/usr/share/texlive/texmf-dist/tex/generic/oberdiek/ifpdf.sty" 1490564930 1251 d170e11a3246c3392bc7f59595af42cb ""
  "/usr/share/texlive/texmf-dist/tex/generic/oberdiek/ifvtex.sty" 1480098815 6797 90b7f83b0ad46826bc16058b1e3d48df ""
  "/usr/share/texlive/texmf-dist/tex/latex/base/omscmr.fd" 1480098821 2256 80ce1168fb4ce6a85583a9cf8972c013 ""
  "/usr/share/texlive/texmf-dist/tex/latex/base/report.cls" 1480098821 22880 e7be6f7dd8c05d5108bf3a7d8cabe59a ""
  "/usr/share/texlive/texmf-dist/tex/latex/base/size10.clo" 1480098821 8292 e897c12e1e886ce77fe26afc5d470886 ""
  "/usr/share/texlive/texmf-dist/tex/latex/geometry/geometry.sty" 1480098829 40502 e003406220954b0716679d7928aedd8a ""
  "/usr/share/texlive/texmf-dist/tex/latex/graphics/keyval.sty" 1480098830 2594 d18d5e19aa8239cf867fa670c556d2e9 ""
  "/usr/share/texlive/texmf-dist/web2c/texmf.cnf" 1503024366 32036 8f10cb8f6ef259fb5791f09c065d3d13 ""
  "/usr/share/texmf/web2c/texmf.cnf" 1503024366 32036 8f10cb8f6ef259fb5791f09c065d3d13 ""
  "/var/lib/texmf/fonts/map/pdftex/updmap/pdftex.map" 1516184253 2377213 8bc19c9e6d8db8e1c35694d1be199981 ""
  "/var/lib/texmf/web2c/pdftex/pdflatex.fmt" 1516184286 4130030 9b93a9d8183124585a3568d303108793 ""
  "ideas.aux" 1517563594 8 a94a2480d3289e625eea47cd1b285758 ""
  "ideas.tex" 1517563593 2804 bddafc97beaae99ffb034b4f7d41530a ""
  (generated)
  "ideas.aux"
  "ideas.log"
  "ideas.pdf"
