{
    "vegetable soup": {
        "carbohydrates": false 
    }, 
    "potatoes": {
        "carbohydrates": true,
        "weight": 200,
        "carbsper100g": 17
    },
    "cabbage": {
        "carbohydrates": false
    },
    "bechamel sauce": {
        "carbohydrates": true, 
        "weight": 100,
        "carbsper100g": 11
    },
    "pork": {
        "carbohydrates": false
    },
    "orange": {
        "carbohydrates": true,
        "weight": 140,
        "carbsper100g": 12
    }
}